{"reqUuid":"374611.38020.16342573327711396","code":200,"data":{"mTest":"jxppzb,~jxpp|mixtag_jxppr,jxpp_s_rr_r,jxpp_s_fr_r,jxpp_s_sr_l15161,jxpp_s_rer_l12088,jxpp_s_fb_r,jxpp_s_csr_r,jxpp_q_hc_r|","pageInfo":{"total":92,"previousPage":1,"firstPage":false,"lastPage":false,"pageIndex":2,"nextPage":3,"startRecord":30,"totalPage":5,"endRecord":60,"pageSize":30,"class":"com.jd.jxt.jxpp.common.response.PageInfo"},"bottomSkuIdList":[],"logId":"8c7eb13c-8352-4ee7-b1bb-b96085d05d9f","pageList":[{"skuBeltImg":"http://img30.360buyimg.com/mobilecms/jfs/t1/198420/20/12997/33440/61684063Eb24efd4a/2a5f5a5451fb4da6.png","available":1,"thirdCatId":25199,"firstCatId":25156,"price":"1.99","skuId":100023183360,"remainNum":-1,"limitCount":3,"skuStatus":1,"secKillFlag":false,"salesNum":164057,"salesNumText":"已售16.4万件","seckillGoodsInfo":{"class":"com.jd.jxt.jxpp.sku.model.SeckillGoodsView","promotionStatus":false},"brandId":32315,"jdPrice":"1.99","selfRaiseTime":"10月16日提货","mainImg":"https://img10.360buyimg.com/jxpp/jfs/t1/187482/11/4981/53582/60ad93a1E63b2e92f/8784ac89ed4b4659.jpg","secondCatId":25162,"skuName":"本地大葱450g±50g【百搭烹饪，香辣爽口】","extMap":{"limitCount":"3","intervene":"0"},"class":"com.jd.app.server.jxt.jxpp.category.api.response.toclient.WareInfoVo","isHeadPrice":false,"preSaleType":0,"coldStoreProperty":0},{"skuBeltImg":"http://img30.360buyimg.com/mobilecms/jfs/t1/198420/20/12997/33440/61684063Eb24efd4a/2a5f5a5451fb4da6.png","available":1,"thirdCatId":25192,"firstCatId":25156,"price":"2.48","skuId":100012426461,"remainNum":-1,"limitCount":3,"skuStatus":1,"secKillFlag":false,"salesNum":196855,"salesNumText":"已售19.7万件","seckillGoodsInfo":{"class":"com.jd.jxt.jxpp.sku.model.SeckillGoodsView","promotionStatus":false},"brandId":32315,"jdPrice":"2.48","selfRaiseTime":"10月16日提货","mainImg":"https://img11.360buyimg.com/jxpp/jfs/t1/184423/20/12884/42509/60e3be0eE667ff2e3/f79ae245249b65cc.jpg","secondCatId":25162,"skuName":"【实惠装】东北香菇250g±30g/兜【嫩滑鲜香，肉质肥厚，菌伞略开】","extMap":{"limitCount":"3","intervene":"0"},"class":"com.jd.app.server.jxt.jxpp.category.api.response.toclient.WareInfoVo","isHeadPrice":false,"preSaleType":0,"coldStoreProperty":0},{"skuBeltImg":"http://img30.360buyimg.com/mobilecms/jfs/t1/199371/18/13008/33868/616840a3Ed2667636/2f9dddc795a7f62d.png","available":1,"thirdCatId":25188,"firstCatId":25156,"price":"1.28","skuId":100010921017,"remainNum":-1,"couponText":"满25减5","limitCount":5,"skuStatus":1,"secKillFlag":false,"salesNum":140702,"salesNumText":"已售14.1万件","seckillGoodsInfo":{"class":"com.jd.jxt.jxpp.sku.model.SeckillGoodsView","promotionStatus":false},"brandId":535438,"jdPrice":"0.69","selfRaiseTime":"10月16日提货","newcomerPriceFlag":1,"mainImg":"https://img10.360buyimg.com/jxpp/jfs/t1/157702/39/17998/140082/6070691cEe1d975e3/f2a5a8ac82f0d86d.jpg","secondCatId":25162,"skuName":"新挖西瓜红蜜薯500g±50g","extMap":{"economicAmount":"0.59","couponDetail":"{\"couponQuotaText\":\"25\",\"couponText\":\"满25减5\",\"couponTextType\":\"1\",\"couponDiscountText\":\"5\"}","limitCount":"5","intervene":"0","promotionText":"新人价"},"class":"com.jd.app.server.jxt.jxpp.category.api.response.toclient.WareInfoVo","isHeadPrice":false,"preSaleType":0,"coldStoreProperty":0},{"skuBeltImg":"http://img30.360buyimg.com/mobilecms/jfs/t1/198420/20/12997/33440/61684063Eb24efd4a/2a5f5a5451fb4da6.png","available":1,"thirdCatId":25188,"firstCatId":25156,"price":"1.95","skuId":100026208698,"remainNum":-1,"limitCount":5,"skuStatus":1,"secKillFlag":false,"salesNum":199309,"salesNumText":"已售19.9万件","seckillGoodsInfo":{"class":"com.jd.jxt.jxpp.sku.model.SeckillGoodsView","promotionStatus":false},"brandId":32315,"jdPrice":"1.95","selfRaiseTime":"10月16日提货","mainImg":"https://img11.360buyimg.com/jxpp/jfs/t1/182586/33/8573/89632/60c1d410Ece87a434/9eea952ed4b99885.jpg","secondCatId":25162,"skuName":"精选内蒙黄心土豆1000g±80g","extMap":{"limitCount":"5","intervene":"0"},"class":"com.jd.app.server.jxt.jxpp.category.api.response.toclient.WareInfoVo","isHeadPrice":false,"preSaleType":0,"coldStoreProperty":0},{"skuBeltImg":"http://img30.360buyimg.com/mobilecms/jfs/t1/198420/20/12997/33440/61684063Eb24efd4a/2a5f5a5451fb4da6.png","available":1,"thirdCatId":25192,"firstCatId":25156,"price":"0.98","skuId":100010635575,"remainNum":-1,"limitCount":5,"skuStatus":1,"secKillFlag":false,"salesNum":281276,"salesNumText":"已售28.1万件","seckillGoodsInfo":{"class":"com.jd.jxt.jxpp.sku.model.SeckillGoodsView","promotionStatus":false},"brandId":32315,"jdPrice":"0.98","selfRaiseTime":"10月16日提货","mainImg":"https://img11.360buyimg.com/jxpp/jfs/t1/162493/27/11789/48574/6049b2b7Eac7448e9/88593b73951b4a19.jpg","secondCatId":25162,"skuName":" 精品金针菇150g±5g/袋","extMap":{"limitCount":"5","intervene":"0"},"class":"com.jd.app.server.jxt.jxpp.category.api.response.toclient.WareInfoVo","isHeadPrice":false,"preSaleType":0,"coldStoreProperty":0},{"available":1,"thirdCatId":25180,"firstCatId":25156,"price":"79.90","skuId":100015109597,"remainNum":-1,"limitCount":5,"skuStatus":1,"secKillFlag":false,"salesNum":0,"seckillGoodsInfo":{"class":"com.jd.jxt.jxpp.sku.model.SeckillGoodsView","promotionStatus":false},"brandId":32315,"jdPrice":"79.90","selfRaiseTime":"10月16日提货","mainImg":"https://img10.360buyimg.com/jxpp/jfs/t1/152354/11/22234/288447/61667e61E8f332890/7a806047a69c8200.jpg","secondCatId":25162,"skuName":"新鲜意大利生菜30斤±0.5斤","extMap":{"limitCount":"5","intervene":"0"},"class":"com.jd.app.server.jxt.jxpp.category.api.response.toclient.WareInfoVo","isHeadPrice":false,"preSaleType":0,"coldStoreProperty":0},{"available":1,"thirdCatId":25180,"firstCatId":25156,"price":"42.80","skuId":100015109573,"remainNum":-1,"limitCount":5,"skuStatus":1,"secKillFlag":false,"salesNum":1,"salesNumText":"已售1件","seckillGoodsInfo":{"class":"com.jd.jxt.jxpp.sku.model.SeckillGoodsView","promotionStatus":false},"brandId":588668,"jdPrice":"42.80","selfRaiseTime":"10月16日提货","mainImg":"https://img13.360buyimg.com/jxpp/jfs/t1/198844/23/12878/693086/61668490E0851bbfd/4adfa9aacec73327.jpg","secondCatId":25162,"skuName":"精选大娃娃菜14kg±1kg","extMap":{"limitCount":"5","intervene":"0"},"class":"com.jd.app.server.jxt.jxpp.category.api.response.toclient.WareInfoVo","isHeadPrice":false,"preSaleType":0,"coldStoreProperty":0},{"available":1,"thirdCatId":25184,"firstCatId":25156,"price":"7.58","skuId":100027821184,"remainNum":-1,"limitCount":5,"skuStatus":1,"secKillFlag":false,"salesNum":24,"salesNumText":"已售24件","seckillGoodsInfo":{"class":"com.jd.jxt.jxpp.sku.model.SeckillGoodsView","promotionStatus":false},"brandId":32315,"jdPrice":"7.58","selfRaiseTime":"10月16日提货","mainImg":"https://img14.360buyimg.com/jxpp/jfs/t1/201948/16/11238/419245/6166ad30E15f45c6f/1a14ac1afdb60364.jpg","secondCatId":25162,"skuName":"真空包装黑糯玉米4棒/袋","extMap":{"limitCount":"5","intervene":"0"},"class":"com.jd.app.server.jxt.jxpp.category.api.response.toclient.WareInfoVo","isHeadPrice":false,"preSaleType":0,"coldStoreProperty":0},{"available":1,"thirdCatId":25188,"firstCatId":25156,"price":"45.90","skuId":100027786408,"remainNum":-1,"limitCount":5,"skuStatus":1,"secKillFlag":false,"salesNum":2,"salesNumText":"已售2件","seckillGoodsInfo":{"class":"com.jd.jxt.jxpp.sku.model.SeckillGoodsView","promotionStatus":false},"brandId":32315,"jdPrice":"45.90","selfRaiseTime":"10月16日提货","mainImg":"https://img11.360buyimg.com/jxpp/jfs/t1/219892/6/106/145771/616644d7E831f95f0/67a8e10aec0d00c3.jpg","secondCatId":25162,"skuName":"精选内蒙黄心土豆28kg±500g","extMap":{"limitCount":"5","intervene":"0"},"class":"com.jd.app.server.jxt.jxpp.category.api.response.toclient.WareInfoVo","isHeadPrice":false,"preSaleType":0,"coldStoreProperty":0},{"available":1,"thirdCatId":25188,"firstCatId":25156,"price":"29.90","skuId":100027786406,"remainNum":-1,"limitCount":5,"skuStatus":1,"secKillFlag":false,"salesNum":0,"seckillGoodsInfo":{"class":"com.jd.jxt.jxpp.sku.model.SeckillGoodsView","promotionStatus":false},"brandId":32315,"jdPrice":"29.90","selfRaiseTime":"10月16日提货","mainImg":"https://img12.360buyimg.com/jxpp/jfs/t1/206222/34/8008/113060/614ec974Ec0d0ce40/b8474eb4da420a5d.jpg","secondCatId":25162,"skuName":"新鲜紫皮洋葱15kg","extMap":{"limitCount":"5","intervene":"0"},"class":"com.jd.app.server.jxt.jxpp.category.api.response.toclient.WareInfoVo","isHeadPrice":false,"preSaleType":0,"coldStoreProperty":0},{"available":1,"thirdCatId":25180,"firstCatId":25156,"price":"88.80","skuId":100027788842,"remainNum":-1,"limitCount":5,"skuStatus":1,"secKillFlag":false,"salesNum":0,"seckillGoodsInfo":{"class":"com.jd.jxt.jxpp.sku.model.SeckillGoodsView","promotionStatus":false},"brandId":32315,"jdPrice":"88.80","selfRaiseTime":"10月16日提货","mainImg":"https://img12.360buyimg.com/jxpp/jfs/t1/218318/38/136/125096/61665141Ed3ec4834/c0095406246e9afb.jpg","secondCatId":25162,"skuName":"上海青30斤（餐饮用）","extMap":{"limitCount":"5","intervene":"0"},"class":"com.jd.app.server.jxt.jxpp.category.api.response.toclient.WareInfoVo","isHeadPrice":false,"preSaleType":0,"coldStoreProperty":0},{"available":1,"thirdCatId":25184,"firstCatId":25156,"price":"110.00","skuId":100027786752,"remainNum":-1,"limitCount":5,"skuStatus":1,"secKillFlag":false,"salesNum":0,"seckillGoodsInfo":{"class":"com.jd.jxt.jxpp.sku.model.SeckillGoodsView","promotionStatus":false},"brandId":32315,"jdPrice":"110.00","selfRaiseTime":"10月16日提货","mainImg":"https://img12.360buyimg.com/jxpp/jfs/t1/203378/10/11058/123211/61664f5cEed26e000/8762651db4c08f0e.jpg","secondCatId":25162,"skuName":"长豆角30斤±0.5斤（餐饮用）","extMap":{"limitCount":"5","intervene":"0"},"class":"com.jd.app.server.jxt.jxpp.category.api.response.toclient.WareInfoVo","isHeadPrice":false,"preSaleType":0,"coldStoreProperty":0},{"skuBeltImg":"http://img30.360buyimg.com/mobilecms/jfs/t1/198420/20/12997/33440/61684063Eb24efd4a/2a5f5a5451fb4da6.png","available":1,"thirdCatId":25184,"firstCatId":25156,"price":"2.48","skuId":100027731896,"remainNum":-1,"limitCount":5,"skuStatus":1,"secKillFlag":false,"salesNum":9802,"salesNumText":"已售9802件","seckillGoodsInfo":{"class":"com.jd.jxt.jxpp.sku.model.SeckillGoodsView","promotionStatus":false},"brandId":32315,"jdPrice":"1.59","selfRaiseTime":"10月16日提货","newcomerPriceFlag":1,"mainImg":"https://img12.360buyimg.com/jxpp/jfs/t1/211574/17/4852/246011/616503a2E6d908315/40c79bb381caf8d2.jpg","secondCatId":25162,"skuName":"精品西红柿500g±50g","extMap":{"economicAmount":"0.89","limitCount":"5","intervene":"0","promotionText":"新人价"},"class":"com.jd.app.server.jxt.jxpp.category.api.response.toclient.WareInfoVo","isHeadPrice":false,"preSaleType":0,"coldStoreProperty":0},{"available":1,"thirdCatId":25199,"firstCatId":25156,"price":"2.98","skuId":100018506958,"remainNum":-1,"limitCount":5,"skuStatus":1,"secKillFlag":false,"salesNum":29253,"salesNumText":"已售2.9万件","seckillGoodsInfo":{"class":"com.jd.jxt.jxpp.sku.model.SeckillGoodsView","promotionStatus":false},"brandId":14151,"jdPrice":"2.98","selfRaiseTime":"10月16日提货","mainImg":"https://img11.360buyimg.com/jxpp/jfs/t1/162453/35/6857/155300/602c88f2E0dbd13a2/7211c79ff349052a.jpg","secondCatId":25162,"skuName":"松花菜 有机花菜 300g/份","extMap":{"limitCount":"5","intervene":"1"},"class":"com.jd.app.server.jxt.jxpp.category.api.response.toclient.WareInfoVo","isHeadPrice":false,"preSaleType":0,"coldStoreProperty":0},{"skuBeltImg":"http://img30.360buyimg.com/mobilecms/jfs/t1/198420/20/12997/33440/61684063Eb24efd4a/2a5f5a5451fb4da6.png","available":1,"thirdCatId":25180,"firstCatId":25156,"price":"2.98","skuId":100021196538,"remainNum":-1,"limitCount":5,"skuStatus":1,"secKillFlag":false,"salesNum":50530,"salesNumText":"已售5.1万件","seckillGoodsInfo":{"promoPrice":"2.75","seckillType":10,"seckillStatus":2,"startTime":1634221800000,"curOr":true,"endTime":1634306399000,"promoId":"200167684815","class":"com.jd.jxt.jxpp.sku.model.SeckillGoodsView","promotionStatus":true},"brandId":588668,"jdPrice":"2.75","selfRaiseTime":"10月16日提货","mainImg":"https://img11.360buyimg.com/jxpp/jfs/t1/160972/36/19963/199788/6085301bEe5b01c52/067440a59d29a4f2.jpg","secondCatId":25162,"skuName":"本地生菜500g土30g","extMap":{"economicAmount":"0.23","seckillReminder":"2","limitCount":"5","intervene":"0","promotionText":"秒杀价"},"class":"com.jd.app.server.jxt.jxpp.category.api.response.toclient.WareInfoVo","isHeadPrice":false,"preSaleType":0,"coldStoreProperty":1},{"skuBeltImg":"http://img30.360buyimg.com/mobilecms/jfs/t1/198420/20/12997/33440/61684063Eb24efd4a/2a5f5a5451fb4da6.png","available":1,"thirdCatId":25188,"firstCatId":25156,"price":"4.88","skuId":100027711996,"remainNum":-1,"limitCount":5,"skuStatus":1,"secKillFlag":false,"salesNum":144,"salesNumText":"已售144件","seckillGoodsInfo":{"class":"com.jd.jxt.jxpp.sku.model.SeckillGoodsView","promotionStatus":false},"brandId":32315,"jdPrice":"4.88","selfRaiseTime":"10月16日提货","mainImg":"https://img12.360buyimg.com/jxpp/jfs/t1/209448/16/4681/288683/6163d7fbEb1578558/28881b170918798d.jpg","secondCatId":25162,"skuName":"新挖西瓜红蜜薯2.5kg±100g","extMap":{"limitCount":"5","intervene":"0"},"class":"com.jd.app.server.jxt.jxpp.category.api.response.toclient.WareInfoVo","isHeadPrice":false,"preSaleType":0,"coldStoreProperty":0},{"available":1,"thirdCatId":25180,"firstCatId":25156,"price":"1.75","skuId":100014168277,"remainNum":-1,"limitCount":5,"skuStatus":1,"secKillFlag":false,"salesNum":43088,"salesNumText":"已售4.3万件","seckillGoodsInfo":{"class":"com.jd.jxt.jxpp.sku.model.SeckillGoodsView","promotionStatus":false},"brandId":32315,"jdPrice":"1.75","selfRaiseTime":"10月16日提货","mainImg":"https://img10.360buyimg.com/jxpp/jfs/t1/84239/15/17134/127962/61389223E08cf28a4/8dcc74e308b597cc.jpg","secondCatId":25162,"skuName":"大娃娃菜500克以上单颗装【新鲜水嫩，紧实饱满】","extMap":{"limitCount":"5","intervene":"0"},"class":"com.jd.app.server.jxt.jxpp.category.api.response.toclient.WareInfoVo","isHeadPrice":false,"preSaleType":0,"coldStoreProperty":0},{"skuBeltImg":"http://img30.360buyimg.com/mobilecms/jfs/t1/198420/20/12997/33440/61684063Eb24efd4a/2a5f5a5451fb4da6.png","available":1,"thirdCatId":25199,"firstCatId":25156,"price":"2.99","skuId":100026675338,"remainNum":-1,"limitCount":3,"skuStatus":1,"secKillFlag":false,"salesNum":22009,"salesNumText":"已售2.2万件","seckillGoodsInfo":{"class":"com.jd.jxt.jxpp.sku.model.SeckillGoodsView","promotionStatus":false},"brandId":32315,"jdPrice":"2.99","selfRaiseTime":"10月16日提货","mainImg":"https://img11.360buyimg.com/jxpp/jfs/t1/110293/37/15907/103549/614014f1E6c98ac61/fbd76406b82411a3.jpg","secondCatId":25162,"skuName":"新花生米250g±20g","extMap":{"limitCount":"3","intervene":"0"},"class":"com.jd.app.server.jxt.jxpp.category.api.response.toclient.WareInfoVo","isHeadPrice":false,"preSaleType":0,"coldStoreProperty":0},{"skuBeltImg":"http://img30.360buyimg.com/mobilecms/jfs/t1/198420/20/12997/33440/61684063Eb24efd4a/2a5f5a5451fb4da6.png","available":1,"thirdCatId":25188,"firstCatId":25156,"price":"1.68","skuId":100027622472,"remainNum":-1,"limitCount":5,"skuStatus":1,"secKillFlag":false,"salesNum":24198,"salesNumText":"已售2.4万件","seckillGoodsInfo":{"class":"com.jd.jxt.jxpp.sku.model.SeckillGoodsView","promotionStatus":false},"brandId":32315,"jdPrice":"1.68","selfRaiseTime":"10月16日提货","mainImg":"https://img12.360buyimg.com/jxpp/jfs/t1/77398/16/17276/108225/6138b0a7E941848ee/7ac1a36d29b91899.jpg","secondCatId":25162,"skuName":"甘肃小洋葱（3-7个）750g±75g","extMap":{"limitCount":"5","intervene":"0"},"class":"com.jd.app.server.jxt.jxpp.category.api.response.toclient.WareInfoVo","isHeadPrice":false,"preSaleType":0,"coldStoreProperty":0},{"skuBeltImg":"http://img30.360buyimg.com/mobilecms/jfs/t1/198420/20/12997/33440/61684063Eb24efd4a/2a5f5a5451fb4da6.png","available":1,"thirdCatId":25188,"firstCatId":25156,"price":"2.49","skuId":100027622450,"remainNum":-1,"limitCount":5,"skuStatus":1,"secKillFlag":false,"salesNum":11847,"salesNumText":"已售1.2万件","seckillGoodsInfo":{"class":"com.jd.jxt.jxpp.sku.model.SeckillGoodsView","promotionStatus":false},"brandId":32315,"jdPrice":"1.49","selfRaiseTime":"10月16日提货","newcomerPriceFlag":1,"mainImg":"https://img10.360buyimg.com/jxpp/jfs/t1/142936/17/22455/109226/61613f95Eeba59c95/3acd9cab871a338e.jpg","secondCatId":25162,"skuName":"本地精品大蒜500g±50g","extMap":{"economicAmount":"1.00","limitCount":"5","intervene":"0","promotionText":"新人价"},"class":"com.jd.app.server.jxt.jxpp.category.api.response.toclient.WareInfoVo","isHeadPrice":false,"preSaleType":0,"coldStoreProperty":0},{"skuBeltImg":"http://img30.360buyimg.com/mobilecms/jfs/t1/198420/20/12997/33440/61684063Eb24efd4a/2a5f5a5451fb4da6.png","available":1,"thirdCatId":25188,"firstCatId":25156,"price":"4.88","skuId":100027679742,"remainNum":-1,"limitCount":5,"skuStatus":1,"secKillFlag":false,"salesNum":277,"salesNumText":"已售277件","seckillGoodsInfo":{"class":"com.jd.jxt.jxpp.sku.model.SeckillGoodsView","promotionStatus":false},"brandId":32315,"jdPrice":"4.88","selfRaiseTime":"10月16日提货","mainImg":"https://img12.360buyimg.com/jxpp/jfs/t1/206222/34/8008/113060/614ec974Ec0d0ce40/b8474eb4da420a5d.jpg","secondCatId":25162,"skuName":"精选紫皮洋葱2500g±100g","extMap":{"limitCount":"5","intervene":"0"},"class":"com.jd.app.server.jxt.jxpp.category.api.response.toclient.WareInfoVo","isHeadPrice":false,"preSaleType":0,"coldStoreProperty":0},{"skuBeltImg":"http://img30.360buyimg.com/mobilecms/jfs/t1/198420/20/12997/33440/61684063Eb24efd4a/2a5f5a5451fb4da6.png","available":1,"thirdCatId":25184,"firstCatId":25156,"price":"1.99","skuId":100027647998,"remainNum":-1,"limitCount":5,"skuStatus":1,"secKillFlag":false,"salesNum":342,"salesNumText":"已售342件","seckillGoodsInfo":{"promoPrice":"1.96","seckillType":10,"seckillStatus":2,"startTime":1634221800000,"curOr":true,"endTime":1634306399000,"promoId":"200167684545","class":"com.jd.jxt.jxpp.sku.model.SeckillGoodsView","promotionStatus":true},"brandId":32315,"jdPrice":"1.96","selfRaiseTime":"10月16日提货","mainImg":"https://img11.360buyimg.com/jxpp/jfs/t1/157299/33/26031/273681/616254f8E792c9eec/f1cf648c232c3644.jpg","secondCatId":25162,"skuName":"真空包装黑糯玉米1棒/袋 220g","extMap":{"economicAmount":"0.03","seckillReminder":"2","limitCount":"5","intervene":"0","promotionText":"秒杀价"},"class":"com.jd.app.server.jxt.jxpp.category.api.response.toclient.WareInfoVo","isHeadPrice":false,"preSaleType":0,"coldStoreProperty":0},{"skuBeltImg":"http://img30.360buyimg.com/mobilecms/jfs/t1/213922/3/390/34444/6168403bE0f947f67/0317868a8ebc18ac.png","available":2,"thirdCatId":25199,"firstCatId":25156,"price":"2.88","skuId":100014964047,"remainNum":-1,"limitCount":5,"skuStatus":1,"secKillFlag":false,"salesNum":696,"salesNumText":"已售696件","seckillGoodsInfo":{"promoPrice":"2.78","seckillType":10,"seckillStatus":1,"startTime":1634263200000,"curOr":false,"endTime":1634306399000,"promoId":"200167682640","class":"com.jd.jxt.jxpp.sku.model.SeckillGoodsView","promotionStatus":true},"brandId":32315,"jdPrice":"2.78","selfRaiseTime":"10月16日提货","mainImg":"https://img10.360buyimg.com/jxpp/jfs/t1/201829/40/10306/140586/61602c47Ed16c5387/ef696fb2a73208b2.jpg","secondCatId":25162,"skuName":"精品鲜毛豆500g/袋","extMap":{"economicAmount":"0.10","seckillReminder":"2","limitCount":"5","intervene":"0","promotionText":"秒杀价"},"class":"com.jd.app.server.jxt.jxpp.category.api.response.toclient.WareInfoVo","isHeadPrice":false,"preSaleType":0,"coldStoreProperty":0},{"available":1,"thirdCatId":25180,"firstCatId":25156,"price":"1.95","skuId":100018108956,"remainNum":-1,"limitCount":5,"skuStatus":1,"secKillFlag":false,"salesNum":7546,"salesNumText":"已售7546件","seckillGoodsInfo":{"class":"com.jd.jxt.jxpp.sku.model.SeckillGoodsView","promotionStatus":false},"brandId":588668,"jdPrice":"1.95","selfRaiseTime":"10月16日提货","mainImg":"https://img12.360buyimg.com/jxpp/jfs/t1/161872/25/3915/47817/600aa64dEb4013b9f/bca38cc3874e52a4.jpg","secondCatId":25162,"skuName":"河南蒜苔250g±20g","extMap":{"limitCount":"5","intervene":"1"},"class":"com.jd.app.server.jxt.jxpp.category.api.response.toclient.WareInfoVo","isHeadPrice":false,"preSaleType":0,"coldStoreProperty":0},{"available":1,"thirdCatId":25188,"firstCatId":25156,"price":"1.78","skuId":100014603379,"remainNum":-1,"limitCount":5,"skuStatus":1,"secKillFlag":false,"salesNum":9969,"salesNumText":"已售9969件","seckillGoodsInfo":{"class":"com.jd.jxt.jxpp.sku.model.SeckillGoodsView","promotionStatus":false},"brandId":32315,"jdPrice":"1.78","selfRaiseTime":"10月16日提货","mainImg":"https://img12.360buyimg.com/jxpp/jfs/t1/207366/40/1853/163046/614c4f97E2b2b0732/d8dcd1822a327c2b.jpg","secondCatId":25162,"skuName":"洋硕 新鲜芋头500g±50g","extMap":{"limitCount":"5","intervene":"0"},"class":"com.jd.app.server.jxt.jxpp.category.api.response.toclient.WareInfoVo","isHeadPrice":false,"preSaleType":0,"coldStoreProperty":0},{"skuBeltImg":"http://img30.360buyimg.com/mobilecms/jfs/t1/198420/20/12997/33440/61684063Eb24efd4a/2a5f5a5451fb4da6.png","available":1,"thirdCatId":25180,"firstCatId":25156,"price":"2.28","skuId":100017879738,"remainNum":-1,"limitCount":5,"skuStatus":1,"secKillFlag":false,"salesNum":174423,"salesNumText":"已售17.4万件","seckillGoodsInfo":{"class":"com.jd.jxt.jxpp.sku.model.SeckillGoodsView","promotionStatus":false},"brandId":14151,"jdPrice":"2.28","selfRaiseTime":"10月16日提货","mainImg":"https://img11.360buyimg.com/jxpp/jfs/t1/163825/30/17430/121134/6071bd57Ed61c8fb8/7be21710597c762a.jpg","secondCatId":25162,"skuName":"新鲜本地芹菜 500g/份","extMap":{"limitCount":"5","intervene":"1"},"class":"com.jd.app.server.jxt.jxpp.category.api.response.toclient.WareInfoVo","isHeadPrice":false,"preSaleType":0,"coldStoreProperty":0},{"skuBeltImg":"http://img30.360buyimg.com/mobilecms/jfs/t1/213922/3/390/34444/6168403bE0f947f67/0317868a8ebc18ac.png","available":1,"thirdCatId":25188,"firstCatId":25156,"price":"2.28","skuId":100026893668,"remainNum":-1,"limitCount":5,"skuStatus":1,"secKillFlag":false,"salesNum":21283,"salesNumText":"已售2.1万件","seckillGoodsInfo":{"promoPrice":"1.99","seckillType":10,"seckillStatus":2,"startTime":1634256000000,"curOr":true,"endTime":1634306399000,"promoId":"200167683330","class":"com.jd.jxt.jxpp.sku.model.SeckillGoodsView","promotionStatus":true},"brandId":588668,"jdPrice":"1.99","selfRaiseTime":"10月16日提货","mainImg":"https://img11.360buyimg.com/jxpp/jfs/t1/207257/15/3382/866248/615916aaE284a75e1/d4d3d1ccec8738ab.jpg","secondCatId":25162,"skuName":"现挖带泥胡萝卜1000g ±100g","extMap":{"economicAmount":"0.29","seckillReminder":"2","limitCount":"5","intervene":"0","promotionText":"秒杀价"},"class":"com.jd.app.server.jxt.jxpp.category.api.response.toclient.WareInfoVo","isHeadPrice":false,"preSaleType":0,"coldStoreProperty":0},{"skuBeltImg":"http://img30.360buyimg.com/mobilecms/jfs/t1/198420/20/12997/33440/61684063Eb24efd4a/2a5f5a5451fb4da6.png","available":1,"thirdCatId":25188,"firstCatId":25156,"price":"2.28","skuId":100026758094,"remainNum":-1,"limitCount":5,"skuStatus":1,"secKillFlag":false,"salesNum":25146,"salesNumText":"已售2.5万件","seckillGoodsInfo":{"class":"com.jd.jxt.jxpp.sku.model.SeckillGoodsView","promotionStatus":false},"brandId":32315,"jdPrice":"2.28","selfRaiseTime":"10月16日提货","mainImg":"https://img14.360buyimg.com/jxpp/jfs/t1/197592/9/7507/78789/6138b0bcE75c2d853/10cf7e98ed642883.jpg","secondCatId":25162,"skuName":"甘肃新苗洋葱1000g±100g","extMap":{"limitCount":"5","intervene":"0"},"class":"com.jd.app.server.jxt.jxpp.category.api.response.toclient.WareInfoVo","isHeadPrice":false,"preSaleType":0,"coldStoreProperty":0},{"available":1,"thirdCatId":25184,"firstCatId":25156,"price":"1.08","skuId":100024559946,"remainNum":-1,"limitCount":5,"skuStatus":1,"secKillFlag":false,"salesNum":45053,"salesNumText":"已售4.5万件","seckillGoodsInfo":{"class":"com.jd.jxt.jxpp.sku.model.SeckillGoodsView","promotionStatus":false},"brandId":517944,"jdPrice":"1.08","selfRaiseTime":"10月16日提货","mainImg":"https://img12.360buyimg.com/jxpp/jfs/t1/193255/28/14990/37766/60ffc100Edaa3a595/5007271e8f14f796.jpg","secondCatId":25162,"skuName":"【产地直采】本地精选黄心土豆500g±50g/袋","extMap":{"limitCount":"5","intervene":"0"},"class":"com.jd.app.server.jxt.jxpp.category.api.response.toclient.WareInfoVo","isHeadPrice":false,"preSaleType":0,"coldStoreProperty":0},{"available":1,"thirdCatId":25197,"firstCatId":25156,"price":"5.58","skuId":100024990498,"remainNum":-1,"limitCount":5,"skuStatus":1,"secKillFlag":false,"salesNum":32204,"salesNumText":"已售3.2万件","seckillGoodsInfo":{"class":"com.jd.jxt.jxpp.sku.model.SeckillGoodsView","promotionStatus":false},"brandId":14151,"jdPrice":"5.58","selfRaiseTime":"10月16日提货","mainImg":"https://img11.360buyimg.com/jxpp/jfs/t1/188069/22/17264/87787/610d0586E697ca3ad/90a73168523577aa.jpg","secondCatId":25162,"skuName":"（逮劲）白沙花生米500g±30g","extMap":{"limitCount":"5","intervene":"0"},"class":"com.jd.app.server.jxt.jxpp.category.api.response.toclient.WareInfoVo","isHeadPrice":false,"preSaleType":0,"coldStoreProperty":0}],"class":"com.jd.app.server.jxt.jxpp.category.api.response.toclient.PagedWareInfoVo"},"class":"com.jd.xtl.common.spi.response.APIResult","success":true}